^F:\DOANDHMT\DOANDHMT\DEBUG\BIRD.OBJ|F:\DOANDHMT\DOANDHMT\DEBUG\GAME.OBJ|F:\DOANDHMT\DOANDHMT\DEBUG\MAIN.OBJ|F:\DOANDHMT\DOANDHMT\DEBUG\OBSTACLE.OBJ|F:\DOANDHMT\DOANDHMT\DEBUG\PILLAR.OBJ
F:\DOANDHMT\DEBUG\DOANDHMT.EXE
F:\DOANDHMT\DEBUG\DOANDHMT.ILK
F:\DOANDHMT\DEBUG\DOANDHMT.PDB
